{
    "codeType": "D",
    "validFor": "RC",
    "codeName": "STUDENT",
    "description": " DISCOUNT FOR EDUCATIONAL SEASON- CHARGES Rs 100 OFF, 50 PAISE DISCOUNT ON CARD RATE",
    "startDateTime": "01-05-2020 00:00:00",
    "endDateTime": "01-07-2020 00:00:00",
    "minMaxAmountType": "LCY",
    "minimumINRAmount": "10",
    "maximumINRAmount": "100",
    "maximumTotalUsage": "100000",
    "maximumUsagePerCustomer": "1",
    "rateApplyType": "GBL",
    "applicableRateMargin": "50",
    "chargesDiscount": {
        "chargeDiscountType": "F",
        "chargeDiscount": "100"
    },
    "rateDiscount": {
        "rateDiscountType": "F",
        "rateDiscountOn": "IBR",
        "rateDiscountOrMargin": "50"
    },
    "termsFilter": {
        "channel": [
            "branch",
            "mobile",
            "PORTAL"
        ],
        "transTypeCode": [
            "CN-SALE",
            "SVC-S",
            "SVC-R",
            "TT-SALE",
            "DD-SALE"
        ],
        "customerCategory": [
            "STUDENT",
            "EMPLOYEE"
        ],
        "currency": [
            {
                "currCode": "USD",
                "minAmount": "",
                "maxAmount": "",
                "discount": ""
            },
            {
                "currCode": "EUR",
                "minAmount": "",
                "maxAmount": "",
                "discount": ""
            },
            {
                "currCode": "GBP",
                "minAmount": "",
                "maxAmount": "",
                "discount": ""
            }
        ]
    }
}